<svg width="300" height="60" viewBox="0 0 300 60" fill="none" xmlns="http://www.w3.org/2000/svg">
<rect x="1" y="1" width="298" height="58" rx="29" stroke="#B2CBE5" stroke-width="2"/>
<path d="M82.1094 32.4883C81.9336 33.9922 81.377 35.1543 80.4395 35.9746C79.5085 36.7884 78.2682 37.1953 76.7188 37.1953C75.0391 37.1953 73.6914 36.5931 72.6758 35.3887C71.6667 34.1842 71.1621 32.5729 71.1621 30.5547V29.1875C71.1621 27.8659 71.3965 26.7038 71.8652 25.7012C72.3405 24.6986 73.0111 23.9303 73.877 23.3965C74.7428 22.8561 75.7454 22.5859 76.8848 22.5859C78.3952 22.5859 79.6061 23.0091 80.5176 23.8555C81.429 24.6953 81.9596 25.8607 82.1094 27.3516H80.2246C80.0618 26.2188 79.707 25.3984 79.1602 24.8906C78.6198 24.3828 77.8613 24.1289 76.8848 24.1289C75.6868 24.1289 74.7461 24.5716 74.0625 25.457C73.3854 26.3424 73.0469 27.6022 73.0469 29.2363V30.6133C73.0469 32.1562 73.3691 33.3835 74.0137 34.2949C74.6582 35.2064 75.5599 35.6621 76.7188 35.6621C77.7604 35.6621 78.5579 35.4277 79.1113 34.959C79.6712 34.4837 80.0423 33.6602 80.2246 32.4883H82.1094ZM87.0996 22.7812L91.748 34.3828L96.3965 22.7812H98.8281V37H96.9531V31.4629L97.1289 25.4863L92.4609 37H91.0254L86.3672 25.5156L86.5527 31.4629V37H84.6777V22.7812H87.0996ZM113.076 30.3496C113.076 31.7428 112.842 32.9603 112.373 34.002C111.904 35.0371 111.24 35.8281 110.381 36.375C109.521 36.9219 108.519 37.1953 107.373 37.1953C106.253 37.1953 105.26 36.9219 104.395 36.375C103.529 35.8216 102.855 35.0371 102.373 34.0215C101.898 32.9993 101.654 31.8177 101.641 30.4766V29.4512C101.641 28.084 101.878 26.8763 102.354 25.8281C102.829 24.7799 103.499 23.9792 104.365 23.4258C105.238 22.8659 106.234 22.5859 107.354 22.5859C108.493 22.5859 109.495 22.8626 110.361 23.416C111.234 23.9629 111.904 24.7604 112.373 25.8086C112.842 26.8503 113.076 28.0645 113.076 29.4512V30.3496ZM111.211 29.4316C111.211 27.7454 110.872 26.4531 110.195 25.5547C109.518 24.6497 108.571 24.1973 107.354 24.1973C106.169 24.1973 105.234 24.6497 104.551 25.5547C103.874 26.4531 103.525 27.7031 103.506 29.3047V30.3496C103.506 31.9837 103.848 33.2695 104.531 34.207C105.221 35.138 106.169 35.6035 107.373 35.6035C108.584 35.6035 109.521 35.1641 110.186 34.2852C110.85 33.3997 111.191 32.1335 111.211 30.4863V29.4316ZM125.439 24.3242H120.869V37H119.004V24.3242H114.443V22.7812H125.439V24.3242ZM129.424 31.4336V37H127.549V22.7812H132.793C134.349 22.7812 135.566 23.1784 136.445 23.9727C137.331 24.7669 137.773 25.8184 137.773 27.127C137.773 28.5072 137.34 29.5716 136.475 30.3203C135.615 31.0625 134.382 31.4336 132.773 31.4336H129.424ZM129.424 29.9004H132.793C133.796 29.9004 134.564 29.666 135.098 29.1973C135.632 28.722 135.898 28.0384 135.898 27.1465C135.898 26.3001 135.632 25.623 135.098 25.1152C134.564 24.6074 133.831 24.3438 132.9 24.3242H129.424V29.9004ZM148.203 30.4277H142.041V35.4668H149.199V37H140.166V22.7812H149.102V24.3242H142.041V28.8945H148.203V30.4277ZM161.553 24.3242H156.982V37H155.117V24.3242H150.557V22.7812H161.553V24.3242ZM165.635 28.582H169.17C170.654 28.6016 171.813 28.9824 172.646 29.7246C173.48 30.4668 173.896 31.4759 173.896 32.752C173.896 34.0345 173.477 35.0566 172.637 35.8184C171.797 36.5801 170.651 36.974 169.199 37H163.76V22.7812H165.635V28.582ZM165.635 30.125V35.4668H169.062C169.993 35.4668 170.716 35.2194 171.23 34.7246C171.751 34.2298 172.012 33.5658 172.012 32.7324C172.012 31.9316 171.761 31.3001 171.26 30.8379C170.765 30.3757 170.059 30.138 169.141 30.125H165.635ZM181.338 37V22.7812H185.986C187.529 22.7812 188.688 23.1003 189.463 23.7383C190.244 24.3763 190.635 25.3203 190.635 26.5703C190.635 27.2344 190.446 27.8236 190.068 28.3379C189.691 28.8457 189.176 29.2396 188.525 29.5195C189.294 29.7344 189.899 30.1445 190.342 30.75C190.791 31.349 191.016 32.0651 191.016 32.8984C191.016 34.1745 190.602 35.1771 189.775 35.9062C188.949 36.6354 187.78 37 186.27 37H181.338ZM183.213 30.3496V35.4668H186.309C187.181 35.4668 187.868 35.2422 188.369 34.793C188.877 34.3372 189.131 33.7122 189.131 32.918C189.131 31.2057 188.2 30.3496 186.338 30.3496H183.213ZM183.213 28.8457H186.045C186.865 28.8457 187.52 28.6406 188.008 28.2305C188.503 27.8203 188.75 27.2637 188.75 26.5605C188.75 25.7793 188.522 25.2129 188.066 24.8613C187.611 24.5033 186.917 24.3242 185.986 24.3242H183.213V28.8457ZM204.258 32.4883C204.082 33.9922 203.525 35.1543 202.588 35.9746C201.657 36.7884 200.417 37.1953 198.867 37.1953C197.188 37.1953 195.84 36.5931 194.824 35.3887C193.815 34.1842 193.311 32.5729 193.311 30.5547V29.1875C193.311 27.8659 193.545 26.7038 194.014 25.7012C194.489 24.6986 195.16 23.9303 196.025 23.3965C196.891 22.8561 197.894 22.5859 199.033 22.5859C200.544 22.5859 201.755 23.0091 202.666 23.8555C203.577 24.6953 204.108 25.8607 204.258 27.3516H202.373C202.21 26.2188 201.855 25.3984 201.309 24.8906C200.768 24.3828 200.01 24.1289 199.033 24.1289C197.835 24.1289 196.895 24.5716 196.211 25.457C195.534 26.3424 195.195 27.6022 195.195 29.2363V30.6133C195.195 32.1562 195.518 33.3835 196.162 34.2949C196.807 35.2064 197.708 35.6621 198.867 35.6621C199.909 35.6621 200.706 35.4277 201.26 34.959C201.82 34.4837 202.191 33.6602 202.373 32.4883H204.258ZM214.863 30.4277H208.701V35.4668H215.859V37H206.826V22.7812H215.762V24.3242H208.701V28.8945H214.863V30.4277ZM222.832 28.2305L226.24 22.7812H228.447L223.955 29.832L228.555 37H226.328L222.832 31.4531L219.316 37H217.1L221.709 29.832L217.207 22.7812H219.404L222.832 28.2305Z" fill="#AFCCEA"/>
</svg>
